[
  {
    "project_number": "302",
    "so_number": "031B",
    "ctr_number": "SAF-004",
    "ctr_discipline": "Safety",
    "workhour": "01:00",
    "description": "Office Base",
    "user": "andhikapati.pandega",
    "title": "Lead Process Safety Engineer",
    "timesheet_date": "2024-07-18"
  },
  {
    "project_number": "320",
    "so_number": "003",
    "ctr_number": "SAF 001",
    "ctr_discipline": "Safety",
    "workhour": "05:00",
    "description": "Office Base",
    "user": "andhikapati.pandega",
    "title": "Lead Process Safety Engineer",
    "timesheet_date": "2024-07-18"
  },
  {
    "project_number": "JOBMY-863",
    "so_number": null,
    "ctr_number": "GEN 00",
    "ctr_discipline": "General",
    "workhour": "01:00",
    "description": "Office Base",
    "user": "syafiq.ali",
    "title": "Junior Process Engineer",
    "timesheet_date": "2024-07-18"
  }
]
