[
  {
    "user": "mukhtar.hidayat",
    "timesheet_date": "2024-07-18",
    "entries": [
      {
        "project_number": "326",
        "so_number": "004",
        "ctr_number": "ELE003",
        "ctr_discipline": "Electrical",
        "workhour": "04:00",
        "description": "Office Base",
        "submitted_at": "2024-07-22T08:01:59.950+07:00"
      }
    ]
  },
  {
    "user": "abizar.syahdat",
    "timesheet_date": "2024-07-19",
    "entries": [
      {
        "project_number": "326",
        "so_number": "010",
        "ctr_number": "CIV-001",
        "ctr_discipline": "Civil",
        "workhour": "04:00",
        "description": "Office Base",
        "submitted_at": "2024-07-22T06:35:21.538+07:00"
      },
      {
        "project_number": "326",
        "so_number": "003",
        "ctr_number": "CIV-001",
        "ctr_discipline": "Civil",
        "workhour": "04:00",
        "description": "Office Base",
        "submitted_at": "2024-07-22T06:35:21.534+07:00"
      }
    ]
  },
  {
    "user": "yayat.supriatna",
    "timesheet_date": "2024-07-19",
    "entries": [
      {
        "project_number": "326",
        "so_number": "12",
        "ctr_number": "CTR-002",
        "ctr_discipline": "Pipeline",
        "workhour": "09:00",
        "description": "Office Base",
        "submitted_at": "2024-07-22T07:03:49.035+07:00"
      }
    ]
  },
  {
    "user": "arifo.syafiq",
    "timesheet_date": "2024-07-12",
    "entries": [
      {
        "project_number": "323",
        "so_number": "001",
        "ctr_number": "PM-000",
        "ctr_discipline": "General",
        "workhour": "01:00",
        "description": "Office Base",
        "submitted_at": "2024-07-22T13:19:00.987+07:00"
      },
      {
        "project_number": "326",
        "so_number": "001",
        "ctr_number": "PM-001",
        "ctr_discipline": "Project",
        "workhour": "02:00",
        "description": "Office Base",
        "submitted_at": "2024-07-22T13:19:00.985+07:00"
      },
      {
        "project_number": "327",
        "so_number": null,
        "ctr_number": "PMT-001",
        "ctr_discipline": "Project",
        "workhour": "04:00",
        "description": "Office Base",
        "submitted_at": "2024-07-22T13:19:00.983+07:00"
      }
    ]
  }
]
